{
    "KPackageStructure": "Plasma/Applet",
    "KPlugin": {
        "Authors": [
            {
                "Email": "sebas@kde.org",
                "Name": "Sebastian Kügler",
                "Name[ar]": "Sebastian Kügler",
                "Name[az]": "Sebastian Kügler",
                "Name[be]": "Sebastian Kügler",
                "Name[bg]": "Sebastian Kügler",
                "Name[ca@valencia]": "Sebastian Kügler",
                "Name[ca]": "Sebastian Kügler",
                "Name[cs]": "Sebastian Kügler",
                "Name[da]": "Sebastian Kügler",
                "Name[de]": "Sebastian Kügler",
                "Name[en_GB]": "Sebastian Kügler",
                "Name[eo]": "Sebastian Kügler",
                "Name[es]": "Sebastian Kügler",
                "Name[et]": "Sebastian Kügler",
                "Name[eu]": "Sebastian Kügler",
                "Name[fi]": "Sebastian Kügler",
                "Name[fr]": "Sebastian Kügler",
                "Name[gl]": "Sebastian Kügler",
                "Name[he]": "סבסטיאן קיגלר",
                "Name[hu]": "Sebastian Kügler",
                "Name[ia]": "Sebastian Kügler",
                "Name[id]": "Sebastian Kügler",
                "Name[ie]": "Sebastian Kügler",
                "Name[is]": "Sebastian Kügler",
                "Name[it]": "Sebastian Kügler",
                "Name[ja]": "Sebastian Kügler",
                "Name[ka]": "სებასტიან კუგლერი",
                "Name[ko]": "Sebastian Kügler",
                "Name[lt]": "Sebastian Kügler",
                "Name[nl]": "Sebastian Kügler",
                "Name[nn]": "Sebastian Kügler",
                "Name[pl]": "Sebastian Kügler",
                "Name[pt]": "Sebastian Kügler",
                "Name[pt_BR]": "Sebastian Kügler",
                "Name[ro]": "Sebastian Kügler",
                "Name[ru]": "Sebastian Kügler",
                "Name[sk]": "Sebastian Kügler",
                "Name[sl]": "Sebastian Kügler",
                "Name[sv]": "Sebastian Kügler",
                "Name[ta]": "ஸெபாஸ்டியன் கூக்லர்",
                "Name[tr]": "Sebastian Kügler",
                "Name[uk]": "Sebastian Kügler",
                "Name[vi]": "Sebastian Kügler",
                "Name[x-test]": "xxSebastian Küglerxx",
                "Name[zh_CN]": "Sebastian Kügler",
                "Name[zh_TW]": "Sebastian Kügler"
            }
        ],
        "BugReportUrl": "https://bugs.kde.org/enter_bug.cgi?product=plasmashell&component=Show%20Desktop/Minimize%20All",
        "Category": "Windows and Tasks",
        "Description": "Shows the desktop by minimizing all windows",
        "Description[ar]": "تظهر سطح المكتب بتصغير كل النوافذ",
        "Description[az]": "Bütün pəncərələri kiçiltməklə İş Masasını göstərir",
        "Description[be]": "Згортвае ўсе вокны і паказвае пусты працоўны стол",
        "Description[bg]": "Показва работния плот, като минимизира всички прозорци",
        "Description[ca@valencia]": "Mostra l'escriptori minimitzant totes les finestres",
        "Description[ca]": "Mostra l'escriptori minimitzant totes les finestres",
        "Description[cs]": "Zobrazit plochu minimalizací všech oken",
        "Description[da]": "Viser skrivebordet ved at minimere alle vinduer",
        "Description[de]": "Zeigt die Arbeitsfläche an, indem alle Fenster minimiert werden",
        "Description[en_GB]": "Shows the desktop by minimising all windows",
        "Description[eo]": "Montras la labortablon minimumigante ĉiujn fenestrojn",
        "Description[es]": "Muestra el escritorio minimizando todas las ventanas",
        "Description[et]": "Töölaua näitamine kõigi akende minimeerimise järel",
        "Description[eu]": "Mahaigaina erakusten du leiho guztiak ikonotuz",
        "Description[fi]": "Näyttää työpöydän pienentämällä kaikki ikkunat",
        "Description[fr]": "Afficher le bureau en minimisant toutes les fenêtres",
        "Description[gl]": "Minimiza todas as xanelas para amosar o escritorio.",
        "Description[he]": "מציג את שולחן העבודה על ידי מזעור כל החלונות",
        "Description[hu]": "Megjeleníti az asztalt az összes ablak minimalizálásával",
        "Description[ia]": "Monstra le scriptorio per minimisar omne fenestras",
        "Description[id]": "Menampilkan desktop dengan meminimalkan semua jendela",
        "Description[ie]": "Minimisar omni fenestres e monstrar li Pupitre",
        "Description[is]": "Sýnir skjáborðið með því að fela alla glugga",
        "Description[it]": "Mostra il desktop minimizzando tutte le finestre",
        "Description[ja]": "すべてのウィンドウを最小化してデスクトップを表示",
        "Description[ka]": "ფანჯრების ჩაკეცვა და სამუშაო მაგიდის ჩვენება",
        "Description[ko]": "모든 창을 최소화하여 바탕 화면 표시",
        "Description[lt]": "Suskleisdamas visus langus, rodo darbalaukį",
        "Description[nl]": "Toont het bureaublad door alle vensters te minimaliseren",
        "Description[nn]": "Viser skrivebordet ved å minimera alle vindauga",
        "Description[pa]": "ਸਾਰੀਆਂ ਵਿੰਡੋਆਂ ਨੂੰ ਘੱਟੋ-ਘੱਟ ਕਰਕੇ ਡੈਸਕਟਾਪ ਵੇਖਾਓ",
        "Description[pl]": "Ukazuje pulpit minimalizując wszystkie okna",
        "Description[pt]": "Mostra o ecrã, minimizando todas as janelas",
        "Description[pt_BR]": "Mostra a área de trabalho ao minimizar todas as janelas",
        "Description[ro]": "Arată biroul prin minimizarea tuturor ferestrelor",
        "Description[ru]": "Показывает рабочий стол, свернув все окна",
        "Description[sk]": "Zobrazí plochu minimalizovaním všetkých okien",
        "Description[sl]": "Prikaže namizje s strnjevanjem vseh oken",
        "Description[sv]": "Visar skrivbordet genom att minimera alla fönster",
        "Description[ta]": "அனைத்து சாளரங்களையும் ஒதுக்கி பணிமேடையை காட்டும்",
        "Description[tr]": "Bütün pencereleri küçülterek masaüstünü gösterir",
        "Description[uk]": "Показати стільницю, мінімізувавши усі вікна",
        "Description[vi]": "Hiện bàn làm việc bằng cách thu nhỏ tất cả các cửa sổ",
        "Description[x-test]": "xxShows the desktop by minimizing all windowsxx",
        "Description[zh_CN]": "最小化所有窗口以显示桌面",
        "Description[zh_TW]": "藉由將所有視窗最小化來顯示桌面",
        "EnabledByDefault": true,
        "Icon": "user-desktop",
        "Id": "org.kde.plasma.minimizeall",
        "License": "GPL-2.0+",
        "Name": "Minimize all Windows",
        "Name[ar]": "صغّر كل النوافذ",
        "Name[az]": "Bütün pəncərələri yığın",
        "Name[be]": "Згарнуць усе вокны",
        "Name[bg]": "Минимизиране на всички прозорци",
        "Name[ca@valencia]": "Minimitza totes les finestres",
        "Name[ca]": "Minimitza totes les finestres",
        "Name[cs]": "Minimalizovat všechna okna",
        "Name[da]": "Minimér alle vinduer",
        "Name[de]": "Alle Fenster minimieren",
        "Name[en_GB]": "Minimise all Windows",
        "Name[eo]": "Minimumigi ĉiujn fenestrojn",
        "Name[es]": "Minimizar todas las ventanas",
        "Name[et]": "Kõigi akende minimeerimine",
        "Name[eu]": "Ikonotu leiho guztiak",
        "Name[fi]": "Pienennä kaikki ikkunat",
        "Name[fr]": "Minimiser toutes les fenêtres",
        "Name[gl]": "Minimizar todas as xanelas",
        "Name[he]": "מזעור כל החלונות",
        "Name[hu]": "Összes ablak minimalizálása",
        "Name[ia]": "Minimisa omne fenestras",
        "Name[id]": "Minimalkan Semua Jendela",
        "Name[ie]": "Minimisar omni fenestres",
        "Name[is]": "Fela alla glugga",
        "Name[it]": "Minimizza tutte le finestre",
        "Name[ja]": "ウィンドウ最小化",
        "Name[ka]": "ყველა ფანჯრის ჩაკეცვა",
        "Name[ko]": "모든 창 최소화",
        "Name[lt]": "Suskleisti visus langus",
        "Name[ml]": "എല്ലാ ജാലകങ്ങളും ചെറുതാക്കുക",
        "Name[nl]": "Alle vensters minimaliseren",
        "Name[nn]": "Minimer alle vindauga",
        "Name[pa]": "ਸਭ ਵਿੰਡੋਆਂ ਨੂੰ ਘੱਟੋ-ਘੱਟ ਕਰੋ",
        "Name[pl]": "Minimalizacja wszystkich okien",
        "Name[pt]": "Minimizar Todas as Janelas",
        "Name[pt_BR]": "Minimizar todas as janelas",
        "Name[ro]": "Minimizează toate ferestrele",
        "Name[ru]": "Свернуть все окна",
        "Name[sk]": "Minimalizovať všetky okná",
        "Name[sl]": "Strni vsa okna",
        "Name[sv]": "Minimera alla fönster",
        "Name[ta]": "அனைத்து சாளரங்களையும் ஒதுக்கு",
        "Name[tr]": "Tüm Pencereleri Küçült",
        "Name[uk]": "Мінімізувати усі вікна",
        "Name[vi]": "Thu nhỏ tất cả các cửa sổ",
        "Name[x-test]": "xxMinimize all Windowsxx",
        "Name[zh_CN]": "最小化所有窗口",
        "Name[zh_TW]": "最小化所有視窗",
        "Website": "https://kde.org/plasma-desktop"
    },
    "X-Plasma-API-Minimum-Version": "6.0",
    "X-Plasma-Provides": [
        "org.kde.plasma.windowmanagement"
    ],
    "X-Plasma-RootPath": "org.kde.plasma.showdesktop"
}
